input/tek0034CH1.csv

Model,MDO3034
Firmware Version,1.22

Waveform Type,ANALOG
Point Format,Y
Horizontal Units,s
Horizontal Scale,8e-06
Horizontal Delay,-4e-06
Sample Interval,8e-10
Record Length,100000
Gating,0.0% to 100.0%
Probe Attenuation,10
Vertical Units,V
Vertical Offset,0
Vertical Scale,0.2
Vertical Position,0
,
,
,
Label,
TIME,CH1
-4.400000e-05,-0.243563
-4.399920e-05,-0.241813
-4.399840e-05,-0.242
-4.399760e-05,-0.235969
-4.399680e-05,-0.236187
-4.399600e-05,-0.232281
-4.399520e-05,-0.240156
-4.399440e-05,-0.237719
-4.399360e-05,-0.245781
-4.399280e-05,-0.250312
-4.399200e-05,-0.248844
-4.399120e-05,-0.24575
-4.399040e-05,-0.242688
-4.398960e-05,-0.243219
-4.398880e-05,-0.234875
-4.398800e-05,-0.245594
-4.398720e-05,-0.236031
-4.398640e-05,-0.235281
-4.398560e-05,-0.236563
-4.398480e-05,-0.245594
-4.398400e-05,-0.242125
-4.398320e-05,-0.246
-4.398240e-05,-0.248312
-4.398160e-05,-0.249281
-4.398080e-05,-0.248656
-4.398000e-05,-0.241531
-4.397920e-05,-0.242531
-4.397840e-05,-0.241281
-4.397760e-05,-0.237969
-4.397680e-05,-0.240625
-4.397600e-05,-0.240187
-4.397520e-05,-0.236531
-4.397440e-05,-0.240719
-4.397360e-05,-0.245688
-4.397280e-05,-0.251094
-4.397200e-05,-0.252969
-4.397120e-05,-0.253188
-4.397040e-05,-0.244656
-4.396960e-05,-0.243813
-4.396880e-05,-0.241813
-4.396800e-05,-0.238781
-4.396720e-05,-0.244719
-4.396640e-05,-0.237531
-4.396560e-05,-0.240656
-4.396480e-05,-0.239656
-4.396400e-05,-0.24675
-4.396320e-05,-0.245469
-4.396240e-05,-0.245875
-4.396160e-05,-0.254344
-4.396080e-05,-0.253156
-4.396000e-05,-0.257375
-4.395920e-05,-0.251969
-4.395840e-05,-0.249719
-4.395760e-05,-0.241531
-4.395680e-05,-0.24075
-4.395600e-05,-0.242156
-4.395520e-05,-0.241063
-4.395440e-05,-0.242531
-4.395360e-05,-0.245469
-4.395280e-05,-0.242
-4.395200e-05,-0.252594
-4.395120e-05,-0.257
-4.395040e-05,-0.252688
-4.394960e-05,-0.249594
-4.394880e-05,-0.249281
-4.394800e-05,-0.24475
-4.394720e-05,-0.247938
-4.394640e-05,-0.245156
-4.394560e-05,-0.238406
-4.394480e-05,-0.239437
-4.394400e-05,-0.251375
-4.394320e-05,-0.244469
-4.394240e-05,-0.252406
-4.394160e-05,-0.246281
-4.394080e-05,-0.254063
-4.394000e-05,-0.254156
-4.393920e-05,-0.251656
-4.393840e-05,-0.253281
-4.393760e-05,-0.246969
-4.393680e-05,-0.247188
-4.393600e-05,-0.245531
-4.393520e-05,-0.242406
-4.393440e-05,-0.243094
-4.393360e-05,-0.236219
-4.393280e-05,-0.244125
-4.393200e-05,-0.253688
-4.393120e-05,-0.256781
-4.393040e-05,-0.251875
-4.392960e-05,-0.247563
-4.392880e-05,-0.253469
-4.392800e-05,-0.247125
-4.392720e-05,-0.248625
-4.392640e-05,-0.244469
-4.392560e-05,-0.244438
-4.392480e-05,-0.245719
-4.392400e-05,-0.242031
-4.392320e-05,-0.249344
-4.392240e-05,-0.250875
-4.392160e-05,-0.25175
-4.392080e-05,-0.252844
-4.392000e-05,-0.255063
-4.391920e-05,-0.248781
-4.391840e-05,-0.24625
-4.391760e-05,-0.249188
-4.391680e-05,-0.245625
-4.391600e-05,-0.243594
-4.391520e-05,-0.243469
-4.391440e-05,-0.244469
-4.391360e-05,-0.24475
-4.391280e-05,-0.247719
-4.391200e-05,-0.246375
-4.391120e-05,-0.248875
-4.391040e-05,-0.251688
-4.390960e-05,-0.254875
-4.390880e-05,-0.250906
-4.390800e-05,-0.254781
-4.390720e-05,-0.249844
-4.390640e-05,-0.249
-4.390560e-05,-0.2465
-4.390480e-05,-0.241844
-4.390400e-05,-0.243906
-4.390320e-05,-0.245906
-4.390240e-05,-0.2505
-4.390160e-05,-0.248469
-4.390080e-05,-0.251094
-4.390000e-05,-0.252437
-4.389920e-05,-0.254312
-4.389840e-05,-0.256469
-4.389760e-05,-0.256344
-4.389680e-05,-0.24825
-4.389600e-05,-0.253031
-4.389520e-05,-0.251469
-4.389440e-05,-0.247438
-4.389360e-05,-0.242563
-4.389280e-05,-0.249688
-4.389200e-05,-0.242094
-4.389120e-05,-0.24575
-4.389040e-05,-0.252937
-4.388960e-05,-0.257437
-4.388880e-05,-0.252594
-4.388800e-05,-0.25175
-4.388720e-05,-0.256531
-4.388640e-05,-0.25725
-4.388560e-05,-0.252875
-4.388480e-05,-0.247094
-4.388400e-05,-0.24875
-4.388320e-05,-0.252812
-4.388240e-05,-0.249781
-4.388160e-05,-0.249531
-4.388080e-05,-0.249938
-4.388000e-05,-0.255188
-4.387920e-05,-0.256125
-4.387840e-05,-0.255594
-4.387760e-05,-0.256063
-4.387680e-05,-0.257125
-4.387600e-05,-0.256781
-4.387520e-05,-0.2505
-4.387440e-05,-0.248438
-4.387360e-05,-0.247813
-4.387280e-05,-0.253688
-4.387200e-05,-0.249094
-4.387120e-05,-0.253156
-4.387040e-05,-0.250937
-4.386960e-05,-0.2475
-4.386880e-05,-0.252063
-4.386800e-05,-0.255125
-4.386720e-05,-0.254688
-4.386640e-05,-0.25775
-4.386560e-05,-0.256906
-4.386480e-05,-0.249188
-4.386400e-05,-0.256719
-4.386320e-05,-0.250844
-4.386240e-05,-0.247094
-4.386160e-05,-0.23675
-4.386080e-05,-0.245375
-4.386000e-05,-0.2475
-4.385920e-05,-0.247688
-4.385840e-05,-0.253688
-4.385760e-05,-0.253156
-4.385680e-05,-0.257344
-4.385600e-05,-0.260531
-4.385520e-05,-0.256437
-4.385440e-05,-0.254781
-4.385360e-05,-0.252719
-4.385280e-05,-0.252875
-4.385200e-05,-0.251219
-4.385120e-05,-0.24825
-4.385040e-05,-0.248781
-4.384960e-05,-0.247469
-4.384880e-05,-0.254906
-4.384800e-05,-0.254563
-4.384720e-05,-0.260156
-4.384640e-05,-0.257219
-4.384560e-05,-0.260844
-4.384480e-05,-0.261844
-4.384400e-05,-0.254781
-4.384320e-05,-0.251563
-4.384240e-05,-0.25025
-4.384160e-05,-0.2525
-4.384080e-05,-0.252094
-4.384000e-05,-0.248156
-4.383920e-05,-0.251031
-4.383840e-05,-0.256406
-4.383760e-05,-0.255688
-4.383680e-05,-0.25625
-4.383600e-05,-0.258375
-4.383520e-05,-0.259031
-4.383440e-05,-0.262063
-4.383360e-05,-0.252906
-4.383280e-05,-0.255
-4.383200e-05,-0.249438
-4.383120e-05,-0.2545
-4.383040e-05,-0.250219
-4.382960e-05,-0.249156
-4.382880e-05,-0.249281
-4.382800e-05,-0.253031
-4.382720e-05,-0.261469
-4.382640e-05,-0.260937
-4.382560e-05,-0.256937
-4.382480e-05,-0.261
-4.382400e-05,-0.25925
-4.382320e-05,-0.256812
-4.382240e-05,-0.257
-4.382160e-05,-0.254406
-4.382080e-05,-0.252344
-4.382000e-05,-0.246469
-4.381920e-05,-0.244688
-4.381840e-05,-0.258031
-4.381760e-05,-0.253688
-4.381680e-05,-0.259094
-4.381600e-05,-0.266188
-4.381520e-05,-0.261
-4.381440e-05,-0.261937
-4.381360e-05,-0.259156
-4.381280e-05,-0.259563
-4.381200e-05,-0.256781
-4.381120e-05,-0.251375
-4.381040e-05,-0.2495
-4.380960e-05,-0.252563
-4.380880e-05,-0.252719
-4.380800e-05,-0.250875
-4.380720e-05,-0.255063
-4.380640e-05,-0.258563
-4.380560e-05,-0.265531
-4.380480e-05,-0.256281
-4.380400e-05,-0.263844
-4.380320e-05,-0.263031
-4.380240e-05,-0.2635
-4.380160e-05,-0.255937
-4.380080e-05,-0.252594
-4.380000e-05,-0.255812
-4.379920e-05,-0.253937
-4.379840e-05,-0.256094
-4.379760e-05,-0.256719
-4.379680e-05,-0.264656
-4.379600e-05,-0.261031
-4.379520e-05,-0.262844
-4.379440e-05,-0.263031
-4.379360e-05,-0.263875
-4.379280e-05,-0.259813
-4.379200e-05,-0.261031
-4.379120e-05,-0.256437
-4.379040e-05,-0.248031
-4.378960e-05,-0.252063
-4.378880e-05,-0.253094
-4.378800e-05,-0.256156
-4.378720e-05,-0.256937
-4.378640e-05,-0.265594
-4.378560e-05,-0.259781
-4.378480e-05,-0.258469
-4.378400e-05,-0.264125
-4.378320e-05,-0.260656
-4.378240e-05,-0.258031
-4.378160e-05,-0.257531
-4.378080e-05,-0.258188
-4.378000e-05,-0.251969
-4.377920e-05,-0.252
-4.377840e-05,-0.251406
-4.377760e-05,-0.251563
-4.377680e-05,-0.254063
-4.377600e-05,-0.264469
-4.377520e-05,-0.262719
-4.377440e-05,-0.268344
-4.377360e-05,-0.265188
-4.377280e-05,-0.269062
-4.377200e-05,-0.261781
-4.377120e-05,-0.265062
-4.377040e-05,-0.258063
-4.376960e-05,-0.261844
-4.376880e-05,-0.249844
-4.376800e-05,-0.251906
-4.376720e-05,-0.257937
-4.376640e-05,-0.258813
-4.376560e-05,-0.257531
-4.376480e-05,-0.264094
-4.376400e-05,-0.267531
-4.376320e-05,-0.266281
-4.376240e-05,-0.268031
-4.376160e-05,-0.259219
-4.376080e-05,-0.256063
-4.376000e-05,-0.255312
-4.375920e-05,-0.254844
-4.375840e-05,-0.25975
-4.375760e-05,-0.256188
-4.375680e-05,-0.254781
-4.375600e-05,-0.255406
-4.375520e-05,-0.258969
-4.375440e-05,-0.260656
-4.375360e-05,-0.263781
-4.375280e-05,-0.268344
-4.375200e-05,-0.26575
-4.375120e-05,-0.268062
-4.375040e-05,-0.258188
-4.374960e-05,-0.260094
-4.374880e-05,-0.259875
-4.374800e-05,-0.25375
-4.374720e-05,-0.258437
-4.374640e-05,-0.259406
-4.374560e-05,-0.256125
-4.374480e-05,-0.26225
-4.374400e-05,-0.264688
-4.374320e-05,-0.267469
-4.374240e-05,-0.264531
-4.374160e-05,-0.268125
-4.374080e-05,-0.263156
-4.374000e-05,-0.263188
-4.373920e-05,-0.260688
-4.373840e-05,-0.254906
-4.373760e-05,-0.253156
-4.373680e-05,-0.257812
-4.373600e-05,-0.254844
-4.373520e-05,-0.2625
-4.373440e-05,-0.263563
-4.373360e-05,-0.264031
-4.373280e-05,-0.263563
-4.373200e-05,-0.261531
-4.373120e-05,-0.271469
-4.373040e-05,-0.268156
-4.372960e-05,-0.268156
-4.372880e-05,-0.269313
-4.372800e-05,-0.260625
-4.372720e-05,-0.260406
-4.372640e-05,-0.257
-4.372560e-05,-0.256906
-4.372480e-05,-0.261656
-4.372400e-05,-0.264969
-4.372320e-05,-0.264625
-4.372240e-05,-0.263469
-4.372160e-05,-0.267937
-4.372080e-05,-0.269406
-4.372000e-05,-0.262094
-4.371920e-05,-0.2705
-4.371840e-05,-0.26175
-4.371760e-05,-0.259813
-4.371680e-05,-0.2595
-4.371600e-05,-0.252375
-4.371520e-05,-0.25875
-4.371440e-05,-0.268469
-4.371360e-05,-0.267188
-4.371280e-05,-0.269813
-4.371200e-05,-0.266781
-4.371120e-05,-0.269125
-4.371040e-05,-0.269656
-4.370960e-05,-0.268156
-4.370880e-05,-0.269906
-4.370800e-05,-0.262875
-4.370720e-05,-0.261219
-4.370640e-05,-0.261063
-4.370560e-05,-0.258406
-4.370480e-05,-0.26325
-4.370400e-05,-0.259813
-4.370320e-05,-0.261
-4.370240e-05,-0.270094
-4.370160e-05,-0.270937
-4.370080e-05,-0.2635
-4.370000e-05,-0.27
-4.369920e-05,-0.262594
-4.369840e-05,-0.270937
-4.369760e-05,-0.270375
-4.369680e-05,-0.257344
-4.369600e-05,-0.266469
-4.369520e-05,-0.259906
-4.369440e-05,-0.262531
-4.369360e-05,-0.260406
-4.369280e-05,-0.267188
-4.369200e-05,-0.263719
-4.369120e-05,-0.261375
-4.369040e-05,-0.267094
-4.368960e-05,-0.265469
-4.368880e-05,-0.269156
-4.368800e-05,-0.273031
-4.368720e-05,-0.262656
-4.368640e-05,-0.261656
-4.368560e-05,-0.265562
-4.368480e-05,-0.264844
-4.368400e-05,-0.261219
-4.368320e-05,-0.262437
-4.368240e-05,-0.265188
-4.368160e-05,-0.266719
-4.368080e-05,-0.267156
-4.368000e-05,-0.267844
-4.367920e-05,-0.268719
-4.367840e-05,-0.265562
-4.367760e-05,-0.264625
-4.367680e-05,-0.268219
-4.367600e-05,-0.266656
-4.367520e-05,-0.269594
-4.367440e-05,-0.263219
-4.367360e-05,-0.270875
-4.367280e-05,-0.270562
-4.367200e-05,-0.259813
-4.367120e-05,-0.266688
-4.367040e-05,-0.271844
-4.366960e-05,-0.269688
-4.366880e-05,-0.269813
-4.366800e-05,-0.271125
-4.366720e-05,-0.27125
-4.366640e-05,-0.268656
-4.366560e-05,-0.2745
-4.366480e-05,-0.269969
-4.366400e-05,-0.265031
-4.366320e-05,-0.267562
-4.366240e-05,-0.268781
-4.366160e-05,-0.263
-4.366080e-05,-0.267969
-4.366000e-05,-0.26775
-4.365920e-05,-0.266719
-4.365840e-05,-0.269844
-4.365760e-05,-0.267094
-4.365680e-05,-0.272562
-4.365600e-05,-0.265906
-4.365520e-05,-0.269469
-4.365440e-05,-0.265594
-4.365360e-05,-0.267906
-4.365280e-05,-0.268094
-4.365200e-05,-0.268125
-4.365120e-05,-0.264344
-4.365040e-05,-0.266969
-4.364960e-05,-0.268813
-4.364880e-05,-0.268813
-4.364800e-05,-0.272406
-4.364720e-05,-0.272906
-4.364640e-05,-0.265719
-4.364560e-05,-0.269719
-4.364480e-05,-0.267531
-4.364400e-05,-0.268875
-4.364320e-05,-0.269125
-4.364240e-05,-0.266531
-4.364160e-05,-0.267344
-4.364080e-05,-0.263969
-4.364000e-05,-0.267469
-4.363920e-05,-0.267344
-4.363840e-05,-0.273938
-4.363760e-05,-0.275281
-4.363680e-05,-0.272219
-4.363600e-05,-0.269656
-4.363520e-05,-0.268688
-4.363440e-05,-0.267219
-4.363360e-05,-0.273813
-4.363280e-05,-0.266937
-4.363200e-05,-0.2675
-4.363120e-05,-0.2625
-4.363040e-05,-0.270219
-4.362960e-05,-0.265781
-4.362880e-05,-0.273125
-4.362800e-05,-0.273406
-4.362720e-05,-0.268437
-4.362640e-05,-0.268688
-4.362560e-05,-0.281844
-4.362480e-05,-0.269562
-4.362400e-05,-0.271625
-4.362320e-05,-0.271094
-4.362240e-05,-0.270781
-4.362160e-05,-0.266437
-4.362080e-05,-0.269813
-4.362000e-05,-0.273469
-4.361920e-05,-0.271188
-4.361840e-05,-0.268125
-4.361760e-05,-0.266281
-4.361680e-05,-0.266313
-4.361600e-05,-0.277344
-4.361520e-05,-0.272875
-4.361440e-05,-0.270844
-4.361360e-05,-0.268313
-4.361280e-05,-0.272281
-4.361200e-05,-0.271469
-4.361120e-05,-0.266562
-4.361040e-05,-0.267313
-4.360960e-05,-0.273219
-4.360880e-05,-0.26825
-4.360800e-05,-0.277938
-4.360720e-05,-0.270969
-4.360640e-05,-0.270844
-4.360560e-05,-0.270406
-4.360480e-05,-0.277469
-4.360400e-05,-0.272937
-4.360320e-05,-0.271406
-4.360240e-05,-0.267469
-4.360160e-05,-0.269844
-4.360080e-05,-0.276281
-4.360000e-05,-0.272875
-4.359920e-05,-0.268031
-4.359840e-05,-0.272469
-4.359760e-05,-0.270875
-4.359680e-05,-0.271562
-4.359600e-05,-0.277813
-4.359520e-05,-0.273313
-4.359440e-05,-0.275688
-4.359360e-05,-0.27725
-4.359280e-05,-0.273938
-4.359200e-05,-0.272406
-4.359120e-05,-0.277313
-4.359040e-05,-0.274156
-4.358960e-05,-0.272313
-4.358880e-05,-0.273438
-4.358800e-05,-0.2745
-4.358720e-05,-0.270344
-4.358640e-05,-0.270188
-4.358560e-05,-0.275281
-4.358480e-05,-0.275656
-4.358400e-05,-0.270469
-4.358320e-05,-0.275469
-4.358240e-05,-0.274938
-4.358160e-05,-0.268406
-4.358080e-05,-0.273625
-4.358000e-05,-0.272594
-4.357920e-05,-0.277125
-4.357840e-05,-0.27575
-4.357760e-05,-0.268125
-4.357680e-05,-0.271469
-4.357600e-05,-0.279625
-4.357520e-05,-0.275688
-4.357440e-05,-0.276562
-4.357360e-05,-0.273562
-4.357280e-05,-0.272094
-4.357200e-05,-0.274719
-4.357120e-05,-0.268719
-4.357040e-05,-0.273469
-4.356960e-05,-0.279188
-4.356880e-05,-0.272
-4.356800e-05,-0.269094
-4.356720e-05,-0.2815
-4.356640e-05,-0.278156
-4.356560e-05,-0.2815
-4.356480e-05,-0.276625
-4.356400e-05,-0.278188
-4.356320e-05,-0.279594
-4.356240e-05,-0.277469
-4.356160e-05,-0.273656
-4.356080e-05,-0.273094
-4.356000e-05,-0.274469
-4.355920e-05,-0.279344
-4.355840e-05,-0.273
-4.355760e-05,-0.276344
-4.355680e-05,-0.282969
-4.355600e-05,-0.278219
-4.355520e-05,-0.275344
-4.355440e-05,-0.274094
-4.355360e-05,-0.268656
-4.355280e-05,-0.266531
-4.355200e-05,-0.269219
-4.355120e-05,-0.275281
-4.355040e-05,-0.278625
-4.354960e-05,-0.285469
-4.354880e-05,-0.277906
-4.354800e-05,-0.278969
-4.354720e-05,-0.279594
-4.354640e-05,-0.275562
-4.354560e-05,-0.277969
-4.354480e-05,-0.275688
-4.354400e-05,-0.276375
-4.354320e-05,-0.273531
-4.354240e-05,-0.280844
-4.354160e-05,-0.279531
-4.354080e-05,-0.281562
-4.354000e-05,-0.279031
-4.353920e-05,-0.278313
-4.353840e-05,-0.285562
-4.353760e-05,-0.276
-4.353680e-05,-0.279313
-4.353600e-05,-0.281031
-4.353520e-05,-0.276156
-4.353440e-05,-0.274125
-4.353360e-05,-0.27575
-4.353280e-05,-0.273062
-4.353200e-05,-0.277125
-4.353120e-05,-0.278469
-4.353040e-05,-0.278531
-4.352960e-05,-0.277469
-4.352880e-05,-0.288313
-4.352800e-05,-0.285344
-4.352720e-05,-0.282187
-4.352640e-05,-0.283469
-4.352560e-05,-0.276906
-4.352480e-05,-0.279219
-4.352400e-05,-0.275594
-4.352320e-05,-0.274656
-4.352240e-05,-0.271562
-4.352160e-05,-0.279688
-4.352080e-05,-0.271125
-4.352000e-05,-0.282656
-4.351920e-05,-0.284438
-4.351840e-05,-0.279688
-4.351760e-05,-0.280813
-4.351680e-05,-0.285
-4.351600e-05,-0.282094
-4.351520e-05,-0.279906
-4.351440e-05,-0.275906
-4.351360e-05,-0.275375
-4.351280e-05,-0.271156
-4.351200e-05,-0.272969
-4.351120e-05,-0.277094
-4.351040e-05,-0.2785
-4.350960e-05,-0.275125
-4.350880e-05,-0.2775
-4.350800e-05,-0.284594
-4.350720e-05,-0.280687
-4.350640e-05,-0.2765
-4.350560e-05,-0.278938
-4.350480e-05,-0.281781
-4.350400e-05,-0.279594
-4.350320e-05,-0.275594
-4.350240e-05,-0.269562
-4.350160e-05,-0.277781
-4.350080e-05,-0.272156
-4.350000e-05,-0.277625
-4.349920e-05,-0.282281
-4.349840e-05,-0.281719
-4.349760e-05,-0.28425
-4.349680e-05,-0.279875
-4.349600e-05,-0.282531
-4.349520e-05,-0.273781
-4.349440e-05,-0.271937
-4.349360e-05,-0.277688
-4.349280e-05,-0.273813
-4.349200e-05,-0.276406
-4.349120e-05,-0.277594
-4.349040e-05,-0.279813
-4.348960e-05,-0.277875
-4.348880e-05,-0.289906
-4.348800e-05,-0.286187
-4.348720e-05,-0.281375
-4.348640e-05,-0.286125
-4.348560e-05,-0.285094
-4.348480e-05,-0.283969
-4.348400e-05,-0.279094
-4.348320e-05,-0.282687
-4.348240e-05,-0.277906
-4.348160e-05,-0.277625
-4.348080e-05,-0.277125
-4.348000e-05,-0.287187
-4.347920e-05,-0.282875
-4.347840e-05,-0.288906
-4.347760e-05,-0.287281
-4.347680e-05,-0.285469
-4.347600e-05,-0.289094
-4.347520e-05,-0.29
-4.347440e-05,-0.285719
-4.347360e-05,-0.273531
-4.347280e-05,-0.273781
-4.347200e-05,-0.277969
-4.347120e-05,-0.275875
-4.347040e-05,-0.276625
-4.346960e-05,-0.284031
-4.346880e-05,-0.279656
-4.346800e-05,-0.287719
-4.346720e-05,-0.287969
-4.346640e-05,-0.285656
-4.346560e-05,-0.280562
-4.346480e-05,-0.283
-4.346400e-05,-0.283938
-4.346320e-05,-0.276156
-4.346240e-05,-0.277844
-4.346160e-05,-0.276562
-4.346080e-05,-0.280438
-4.346000e-05,-0.284094
-4.345920e-05,-0.281781
-4.345840e-05,-0.284281
-4.345760e-05,-0.285406
-4.345680e-05,-0.284313
-4.345600e-05,-0.289813
-4.345520e-05,-0.291219
-4.345440e-05,-0.286187
-4.345360e-05,-0.2855
-4.345280e-05,-0.282
-4.345200e-05,-0.281469
-4.345120e-05,-0.282125
-4.345040e-05,-0.279031
-4.344960e-05,-0.280531
-4.344880e-05,-0.284656
-4.344800e-05,-0.287281
-4.344720e-05,-0.294187
-4.344640e-05,-0.293094
-4.344560e-05,-0.287969
-4.344480e-05,-0.295313
-4.344400e-05,-0.287406
-4.344320e-05,-0.282062
-4.344240e-05,-0.285344
-4.344160e-05,-0.276
-4.344080e-05,-0.277469
-4.344000e-05,-0.284156
-4.343920e-05,-0.276594
-4.343840e-05,-0.283
-4.343760e-05,-0.289406
-4.343680e-05,-0.292219
-4.343600e-05,-0.291219
-4.343520e-05,-0.290938
-4.343440e-05,-0.289344
-4.343360e-05,-0.288
-4.343280e-05,-0.285062
-4.343200e-05,-0.285625
-4.343120e-05,-0.284156
-4.343040e-05,-0.284062
-4.342960e-05,-0.2835
-4.342880e-05,-0.288031
-4.342800e-05,-0.282031
-4.342720e-05,-0.291094
-4.342640e-05,-0.291813
-4.342560e-05,-0.29525
-4.342480e-05,-0.287438
-4.342400e-05,-0.295375
-4.342320e-05,-0.290094
-4.342240e-05,-0.288125
-4.342160e-05,-0.280187
-4.342080e-05,-0.280906
-4.342000e-05,-0.283313
-4.341920e-05,-0.2825
-4.341840e-05,-0.284062
-4.341760e-05,-0.289375
-4.341680e-05,-0.282594
-4.341600e-05,-0.28575
-4.341520e-05,-0.296625
-4.341440e-05,-0.296563
-4.341360e-05,-0.296875
-4.341280e-05,-0.291344
-4.341200e-05,-0.289813
-4.341120e-05,-0.282438
-4.341040e-05,-0.282594
-4.340960e-05,-0.281594
-4.340880e-05,-0.283938
-4.340800e-05,-0.283438
-4.340720e-05,-0.284281
-4.340640e-05,-0.289594
-4.340560e-05,-0.285719
-4.340480e-05,-0.290938
-4.340400e-05,-0.294406
-4.340320e-05,-0.298469
-4.340240e-05,-0.291344
-4.340160e-05,-0.28425
-4.340080e-05,-0.28775
-4.340000e-05,-0.285844
-4.339920e-05,-0.285406
-4.339840e-05,-0.287375
-4.339760e-05,-0.280813
-4.339680e-05,-0.286156
-4.339600e-05,-0.292813
-4.339520e-05,-0.288156
-4.339440e-05,-0.296594
-4.339360e-05,-0.300938
-4.339280e-05,-0.295719
-4.339200e-05,-0.290906
-4.339120e-05,-0.293219
-4.339040e-05,-0.289906
-4.338960e-05,-0.2885
-4.338880e-05,-0.280875
-4.338800e-05,-0.282656
-4.338720e-05,-0.284281
-4.338640e-05,-0.288187
-4.338560e-05,-0.287125
-4.338480e-05,-0.292219
-4.338400e-05,-0.290031
-4.338320e-05,-0.294938
-4.338240e-05,-0.295813
-4.338160e-05,-0.29725
-4.338080e-05,-0.297406
-4.338000e-05,-0.28925
-4.337920e-05,-0.286625
-4.337840e-05,-0.284938
-4.337760e-05,-0.286969
-4.337680e-05,-0.283187
-4.337600e-05,-0.287344
-4.337520e-05,-0.295969
-4.337440e-05,-0.295063
-4.337360e-05,-0.29675
-4.337280e-05,-0.299719
-4.337200e-05,-0.291719
-4.337120e-05,-0.292625
-4.337040e-05,-0.287844
-4.336960e-05,-0.287625
-4.336880e-05,-0.283938
-4.336800e-05,-0.285219
-4.336720e-05,-0.283187
-4.336640e-05,-0.287438
-4.336560e-05,-0.287594
-4.336480e-05,-0.295094
-4.336400e-05,-0.299
-4.336320e-05,-0.2945
-4.336240e-05,-0.298063
-4.336160e-05,-0.293781
-4.336080e-05,-0.296844
-4.336000e-05,-0.293156
-4.335920e-05,-0.289906
-4.335840e-05,-0.284844
-4.335760e-05,-0.288062
-4.335680e-05,-0.28725
-4.335600e-05,-0.286062
-4.335520e-05,-0.288969
-4.335440e-05,-0.293875
-4.335360e-05,-0.293313
-4.335280e-05,-0.301031
-4.335200e-05,-0.29725
-4.335120e-05,-0.300906
-4.335040e-05,-0.296812
-4.334960e-05,-0.293719
-4.334880e-05,-0.29
-4.334800e-05,-0.284875
-4.334720e-05,-0.288156
-4.334640e-05,-0.281281
-4.334560e-05,-0.281313
-4.334480e-05,-0.287438
-4.334400e-05,-0.290375
-4.334320e-05,-0.3005
-4.334240e-05,-0.301
-4.334160e-05,-0.297063
-4.334080e-05,-0.300375
-4.334000e-05,-0.295156
-4.333920e-05,-0.289656
